[
  {
    "normalForm": "barn",
    "id": 100005,
    "translations": [ "to judge" ]
  },
  {
    "normalForm": "beajiñ",
    "id": 100006,
    "translations": [ "to travel" ]
  },
  {
    "normalForm": "bevañ",
    "id": 0,
    "translations": [ "to live", "to feed" ]
  },
  {
    "normalForm": "bezañ",
    "id": 100002,
    "translations": [ "to be:*" ],
    "past_participle": "bet",
    "present": {
      "singFirst": "on",
      "singSecond": "out",
      "singThird": [ "zo", "eo", "eus" ],
      "plurFirst": "omp",
      "plurSecond": "oc'h",
      "plurThird": "int",
      "impersonal": "oar, eur"
    },
    "present_situative": {
      "singFirst": "emaon",
      "singSecond": "emaout",
      "singThird": "emañ",
      "plurFirst": "emaomp",
      "plurSecond": "emaoc'h",
      "plurThird": "emaint",
      "impersonal": "emeur"
    },
    "present_habitual": {
      "singFirst": "bezan",
      "singSecond": "bezez",
      "singThird": "bez",
      "plurFirst": "bezomp",
      "plurSecond": "bezit",
      "plurThird": "bezont",
      "impersonal": "bezer"
    },
    "future": {
      "singFirst": [ "bin", "bezin" ],
      "singSecond": [ "bi", "bezi"],
      "singThird": [ "bo", "bezo" ],
      "plurFirst": ["bimp", "bezimp" ],
      "plurSecond": "boc'h",
      "plurThird": [ "bint", "bezint" ],
      "impersonal": "bor"
    },
    "imperfect": {
      "singFirst": "oan",
      "singSecond": "oas",
      "singThird": "oa",
      "plurFirst": "oamp",
      "plurSecond": "oac'h",
      "plurThird": "oant",
      "impersonal": "oad"
    },
    "imperfect_habitual": {},
    "preterite": {
      "singFirst": "boen",
      "singSecond": "boes",
      "singThird": "boe",
      "plurFirst": "boemp",
      "plurSecond": "boec'h",
      "plurThird": "boent",
      "impersonal": "boed"
    },
    "conditional_present": {
      "singFirst": [ "befen", "ben" ],
      "singSecond": [ "befes", "bes"],
      "singThird": [ "befe", "be" ],
      "plurFirst": ["befemp", "bemp" ],
      "plurSecond": [ "befec'h", "bec'h" ],
      "plurThird": [ "befent", "bent" ],
      "impersonal": "befed"
    },
    "conditional_imperfect": {
      "stem": "bi"
    }
  }
]