[
  {
    "normalForm": "mat",
    "id": 100009,
    "stem": "gwell",
    "equative": "koulz"
  },
  {
    "normalForm": "drouk",
    "id": 100010,
    "translations": [ "wrong", "bad", "evil", "wrong" ],
    "related": [ 100012 ],
    "superlative": [ "droukañ","gwashañ" ],
    "comparative": [ "droukoc'h", "gwashoc'h" ]
  },
  {
    "normalForm": "glas",
    "id":100011,
    "translations": [ "blue" ]
  },
  {
    "normalForm": "fall",
    "id": 100012,
    "translations": [ "wrong", "bad", "evil", "wrong" ],
    "related": [ 100010 ],
    "superlative": [ "fallañ","gwashañ" ],
    "comparative": [ "falloc'h", "gwashoc'h" ]
  },
  {
    "normalForm": "bras",
    "id": 100030,
    "translations": [ "big" ]
  },
  {
    "normalForm": "mell",
    "id": 100031,
    "translations": [ "big" ]
  },
  {
    "normalForm": "pezh",
    "id": 100032,
    "translations": [ "big" ]
  },
  {
    "normalForm": "meur",
    "id": 100033,
    "translations": [ "big" ]
  },
  {
    "normalForm": "mat",
    "id": 100034,
    "translations": [ "good" ]
  },
  {
    "normalForm": "bihan",
    "id": 100035,
    "translations": [ "small" ]
  },
  {
    "normalForm": "koant",
    "id": 100036,
    "translations": [ "pretty" ]
  },
  {
    "normalForm": "goustad",
    "id": 100037,
    "translations": [ "slow" ]
  },
  {
    "normalForm": "ruz",
    "id": 100038,
    "translations": [ "red" ]
  },
  {
    "normalForm": "orañjez",
    "id": 100039,
    "translations": [ "orange" ]
  },
  {
    "normalForm": "melenn",
    "id": 100040,
    "translations": [ "yellow" ]
  },
  {
    "normalForm": "glasruz",
    "id": 100041,
    "translations": [ "green", "purple" ]
  },
  {
    "normalForm": "gwenn",
    "id": 100042,
    "translations": [ "white" ]
  },
  {
    "normalForm": "loued",
    "id": 100043,
    "translations": [ "gray" ]
  },
  {
    "normalForm": "du",
    "id": 100044,
    "translations": [ "black" ]
  },
  {
    "normalForm": "abred",
    "id": 100045,
    "translations": [ "early" ]
  },
  {
    "normalForm": "diwezhat",
    "id": 100046,
    "translations": [ "late" ]
  },
  {
    "normalForm": "kozh",
    "id": 100047,
    "translations": [ "old" ],
    "superlative": "koshañ",
    "comparative": "koshoc'h"
  },
  {
    "normalForm": "yaouank",
    "id": 100048,
    "translations": [ "young" ]
  }
]
